[5:06] Ошибка при добавлении дочерних папок System.IO.IOException: Не найден сетевой путь.

   в System.IO.__Error.WinIOError(Int32 errorCode, String maybeFullPath)
   в System.IO.Directory.InternalGetFileDirectoryNames(String path, String userPathOriginal, String searchPattern, Boolean includeFiles, Boolean includeDirs, SearchOption searchOption)
   в System.IO.DirectoryInfo.GetDirectories(String searchPattern, SearchOption searchOption)
   в OKSPWatcher.Utilities.Apps.CreateSearch.AdditionalPathItem.get_Additional() в D:\OKSPWatcher2\OKSPWatcher\OKSPWatcher\Utilities\Apps\CreateSearch\AdditionalPathItem.cs:строка 48
   в System.IO.__Error.WinIOError(Int32 errorCode, String maybeFullPath)
   в System.IO.Directory.InternalGetFileDirectoryNames(String path, String userPathOriginal, String searchPattern, Boolean includeFiles, Boolean includeDirs, SearchOption searchOption)
   в System.IO.DirectoryInfo.GetDirectories(String searchPattern, SearchOption searchOption)
   в OKSPWatcher.Utilities.Apps.CreateSearch.AdditionalPathItem.get_Additional() в D:\OKSPWatcher2\OKSPWatcher\OKSPWatcher\Utilities\Apps\CreateSearch\AdditionalPathItem.cs:строка 48
mscorlib
Void WinIOError(Int32, System.String)

[5:06] Ошибка при добавлении дочерних папок System.IO.IOException: Не найден сетевой путь.

   в System.IO.__Error.WinIOError(Int32 errorCode, String maybeFullPath)
   в System.IO.Directory.InternalGetFileDirectoryNames(String path, String userPathOriginal, String searchPattern, Boolean includeFiles, Boolean includeDirs, SearchOption searchOption)
   в System.IO.DirectoryInfo.GetDirectories(String searchPattern, SearchOption searchOption)
   в OKSPWatcher.Utilities.Apps.CreateSearch.AdditionalPathItem.get_Additional() в D:\OKSPWatcher2\OKSPWatcher\OKSPWatcher\Utilities\Apps\CreateSearch\AdditionalPathItem.cs:строка 48
   в System.IO.__Error.WinIOError(Int32 errorCode, String maybeFullPath)
   в System.IO.Directory.InternalGetFileDirectoryNames(String path, String userPathOriginal, String searchPattern, Boolean includeFiles, Boolean includeDirs, SearchOption searchOption)
   в System.IO.DirectoryInfo.GetDirectories(String searchPattern, SearchOption searchOption)
   в OKSPWatcher.Utilities.Apps.CreateSearch.AdditionalPathItem.get_Additional() в D:\OKSPWatcher2\OKSPWatcher\OKSPWatcher\Utilities\Apps\CreateSearch\AdditionalPathItem.cs:строка 48
mscorlib
Void WinIOError(Int32, System.String)

[5:06] Ошибка при добавлении дочерних папок System.IO.IOException: Не найден сетевой путь.

   в System.IO.__Error.WinIOError(Int32 errorCode, String maybeFullPath)
   в System.IO.Directory.InternalGetFileDirectoryNames(String path, String userPathOriginal, String searchPattern, Boolean includeFiles, Boolean includeDirs, SearchOption searchOption)
   в System.IO.DirectoryInfo.GetDirectories(String searchPattern, SearchOption searchOption)
   в OKSPWatcher.Utilities.Apps.CreateSearch.AdditionalPathItem.get_Additional() в D:\OKSPWatcher2\OKSPWatcher\OKSPWatcher\Utilities\Apps\CreateSearch\AdditionalPathItem.cs:строка 48
   в System.IO.__Error.WinIOError(Int32 errorCode, String maybeFullPath)
   в System.IO.Directory.InternalGetFileDirectoryNames(String path, String userPathOriginal, String searchPattern, Boolean includeFiles, Boolean includeDirs, SearchOption searchOption)
   в System.IO.DirectoryInfo.GetDirectories(String searchPattern, SearchOption searchOption)
   в OKSPWatcher.Utilities.Apps.CreateSearch.AdditionalPathItem.get_Additional() в D:\OKSPWatcher2\OKSPWatcher\OKSPWatcher\Utilities\Apps\CreateSearch\AdditionalPathItem.cs:строка 48
mscorlib
Void WinIOError(Int32, System.String)

[5:06] Ошибка при добавлении дочерних папок System.IO.IOException: Не найден сетевой путь.

   в System.IO.__Error.WinIOError(Int32 errorCode, String maybeFullPath)
   в System.IO.Directory.InternalGetFileDirectoryNames(String path, String userPathOriginal, String searchPattern, Boolean includeFiles, Boolean includeDirs, SearchOption searchOption)
   в System.IO.DirectoryInfo.GetDirectories(String searchPattern, SearchOption searchOption)
   в OKSPWatcher.Utilities.Apps.CreateSearch.AdditionalPathItem.get_Additional() в D:\OKSPWatcher2\OKSPWatcher\OKSPWatcher\Utilities\Apps\CreateSearch\AdditionalPathItem.cs:строка 48
   в System.IO.__Error.WinIOError(Int32 errorCode, String maybeFullPath)
   в System.IO.Directory.InternalGetFileDirectoryNames(String path, String userPathOriginal, String searchPattern, Boolean includeFiles, Boolean includeDirs, SearchOption searchOption)
   в System.IO.DirectoryInfo.GetDirectories(String searchPattern, SearchOption searchOption)
   в OKSPWatcher.Utilities.Apps.CreateSearch.AdditionalPathItem.get_Additional() в D:\OKSPWatcher2\OKSPWatcher\OKSPWatcher\Utilities\Apps\CreateSearch\AdditionalPathItem.cs:строка 48
mscorlib
Void WinIOError(Int32, System.String)

[5:06] Ошибка при добавлении дочерних папок System.IO.IOException: Не найден сетевой путь.

   в System.IO.__Error.WinIOError(Int32 errorCode, String maybeFullPath)
   в System.IO.Directory.InternalGetFileDirectoryNames(String path, String userPathOriginal, String searchPattern, Boolean includeFiles, Boolean includeDirs, SearchOption searchOption)
   в System.IO.DirectoryInfo.GetDirectories(String searchPattern, SearchOption searchOption)
   в OKSPWatcher.Utilities.Apps.CreateSearch.AdditionalPathItem.get_Additional() в D:\OKSPWatcher2\OKSPWatcher\OKSPWatcher\Utilities\Apps\CreateSearch\AdditionalPathItem.cs:строка 48
   в System.IO.__Error.WinIOError(Int32 errorCode, String maybeFullPath)
   в System.IO.Directory.InternalGetFileDirectoryNames(String path, String userPathOriginal, String searchPattern, Boolean includeFiles, Boolean includeDirs, SearchOption searchOption)
   в System.IO.DirectoryInfo.GetDirectories(String searchPattern, SearchOption searchOption)
   в OKSPWatcher.Utilities.Apps.CreateSearch.AdditionalPathItem.get_Additional() в D:\OKSPWatcher2\OKSPWatcher\OKSPWatcher\Utilities\Apps\CreateSearch\AdditionalPathItem.cs:строка 48
mscorlib
Void WinIOError(Int32, System.String)

[5:06] Ошибка при добавлении дочерних папок System.IO.IOException: Не найден сетевой путь.

   в System.IO.__Error.WinIOError(Int32 errorCode, String maybeFullPath)
   в System.IO.Directory.InternalGetFileDirectoryNames(String path, String userPathOriginal, String searchPattern, Boolean includeFiles, Boolean includeDirs, SearchOption searchOption)
   в System.IO.DirectoryInfo.GetDirectories(String searchPattern, SearchOption searchOption)
   в OKSPWatcher.Utilities.Apps.CreateSearch.AdditionalPathItem.get_Additional() в D:\OKSPWatcher2\OKSPWatcher\OKSPWatcher\Utilities\Apps\CreateSearch\AdditionalPathItem.cs:строка 48
   в System.IO.__Error.WinIOError(Int32 errorCode, String maybeFullPath)
   в System.IO.Directory.InternalGetFileDirectoryNames(String path, String userPathOriginal, String searchPattern, Boolean includeFiles, Boolean includeDirs, SearchOption searchOption)
   в System.IO.DirectoryInfo.GetDirectories(String searchPattern, SearchOption searchOption)
   в OKSPWatcher.Utilities.Apps.CreateSearch.AdditionalPathItem.get_Additional() в D:\OKSPWatcher2\OKSPWatcher\OKSPWatcher\Utilities\Apps\CreateSearch\AdditionalPathItem.cs:строка 48
mscorlib
Void WinIOError(Int32, System.String)

[5:06] Ошибка при добавлении дочерних папок System.IO.IOException: Не найден сетевой путь.

   в System.IO.__Error.WinIOError(Int32 errorCode, String maybeFullPath)
   в System.IO.Directory.InternalGetFileDirectoryNames(String path, String userPathOriginal, String searchPattern, Boolean includeFiles, Boolean includeDirs, SearchOption searchOption)
   в System.IO.DirectoryInfo.GetDirectories(String searchPattern, SearchOption searchOption)
   в OKSPWatcher.Utilities.Apps.CreateSearch.AdditionalPathItem.get_Additional() в D:\OKSPWatcher2\OKSPWatcher\OKSPWatcher\Utilities\Apps\CreateSearch\AdditionalPathItem.cs:строка 48
   в System.IO.__Error.WinIOError(Int32 errorCode, String maybeFullPath)
   в System.IO.Directory.InternalGetFileDirectoryNames(String path, String userPathOriginal, String searchPattern, Boolean includeFiles, Boolean includeDirs, SearchOption searchOption)
   в System.IO.DirectoryInfo.GetDirectories(String searchPattern, SearchOption searchOption)
   в OKSPWatcher.Utilities.Apps.CreateSearch.AdditionalPathItem.get_Additional() в D:\OKSPWatcher2\OKSPWatcher\OKSPWatcher\Utilities\Apps\CreateSearch\AdditionalPathItem.cs:строка 48
mscorlib
Void WinIOError(Int32, System.String)

[5:06] Ошибка при добавлении дочерних папок System.IO.IOException: Не найден сетевой путь.

   в System.IO.__Error.WinIOError(Int32 errorCode, String maybeFullPath)
   в System.IO.Directory.InternalGetFileDirectoryNames(String path, String userPathOriginal, String searchPattern, Boolean includeFiles, Boolean includeDirs, SearchOption searchOption)
   в System.IO.DirectoryInfo.GetDirectories(String searchPattern, SearchOption searchOption)
   в OKSPWatcher.Utilities.Apps.CreateSearch.AdditionalPathItem.get_Additional() в D:\OKSPWatcher2\OKSPWatcher\OKSPWatcher\Utilities\Apps\CreateSearch\AdditionalPathItem.cs:строка 48
   в System.IO.__Error.WinIOError(Int32 errorCode, String maybeFullPath)
   в System.IO.Directory.InternalGetFileDirectoryNames(String path, String userPathOriginal, String searchPattern, Boolean includeFiles, Boolean includeDirs, SearchOption searchOption)
   в System.IO.DirectoryInfo.GetDirectories(String searchPattern, SearchOption searchOption)
   в OKSPWatcher.Utilities.Apps.CreateSearch.AdditionalPathItem.get_Additional() в D:\OKSPWatcher2\OKSPWatcher\OKSPWatcher\Utilities\Apps\CreateSearch\AdditionalPathItem.cs:строка 48
mscorlib
Void WinIOError(Int32, System.String)

[5:06] Ошибка при добавлении дочерних папок System.IO.IOException: Не найден сетевой путь.

   в System.IO.__Error.WinIOError(Int32 errorCode, String maybeFullPath)
   в System.IO.Directory.InternalGetFileDirectoryNames(String path, String userPathOriginal, String searchPattern, Boolean includeFiles, Boolean includeDirs, SearchOption searchOption)
   в System.IO.DirectoryInfo.GetDirectories(String searchPattern, SearchOption searchOption)
   в OKSPWatcher.Utilities.Apps.CreateSearch.AdditionalPathItem.get_Additional() в D:\OKSPWatcher2\OKSPWatcher\OKSPWatcher\Utilities\Apps\CreateSearch\AdditionalPathItem.cs:строка 48
   в System.IO.__Error.WinIOError(Int32 errorCode, String maybeFullPath)
   в System.IO.Directory.InternalGetFileDirectoryNames(String path, String userPathOriginal, String searchPattern, Boolean includeFiles, Boolean includeDirs, SearchOption searchOption)
   в System.IO.DirectoryInfo.GetDirectories(String searchPattern, SearchOption searchOption)
   в OKSPWatcher.Utilities.Apps.CreateSearch.AdditionalPathItem.get_Additional() в D:\OKSPWatcher2\OKSPWatcher\OKSPWatcher\Utilities\Apps\CreateSearch\AdditionalPathItem.cs:строка 48
mscorlib
Void WinIOError(Int32, System.String)

[5:06] Ошибка при добавлении дочерних папок System.IO.IOException: Не найден сетевой путь.

   в System.IO.__Error.WinIOError(Int32 errorCode, String maybeFullPath)
   в System.IO.Directory.InternalGetFileDirectoryNames(String path, String userPathOriginal, String searchPattern, Boolean includeFiles, Boolean includeDirs, SearchOption searchOption)
   в System.IO.DirectoryInfo.GetDirectories(String searchPattern, SearchOption searchOption)
   в OKSPWatcher.Utilities.Apps.CreateSearch.AdditionalPathItem.get_Additional() в D:\OKSPWatcher2\OKSPWatcher\OKSPWatcher\Utilities\Apps\CreateSearch\AdditionalPathItem.cs:строка 48
   в System.IO.__Error.WinIOError(Int32 errorCode, String maybeFullPath)
   в System.IO.Directory.InternalGetFileDirectoryNames(String path, String userPathOriginal, String searchPattern, Boolean includeFiles, Boolean includeDirs, SearchOption searchOption)
   в System.IO.DirectoryInfo.GetDirectories(String searchPattern, SearchOption searchOption)
   в OKSPWatcher.Utilities.Apps.CreateSearch.AdditionalPathItem.get_Additional() в D:\OKSPWatcher2\OKSPWatcher\OKSPWatcher\Utilities\Apps\CreateSearch\AdditionalPathItem.cs:строка 48
mscorlib
Void WinIOError(Int32, System.String)

[5:06] Ошибка при добавлении дочерних папок System.IO.IOException: Не найден сетевой путь.

   в System.IO.__Error.WinIOError(Int32 errorCode, String maybeFullPath)
   в System.IO.Directory.InternalGetFileDirectoryNames(String path, String userPathOriginal, String searchPattern, Boolean includeFiles, Boolean includeDirs, SearchOption searchOption)
   в System.IO.DirectoryInfo.GetDirectories(String searchPattern, SearchOption searchOption)
   в OKSPWatcher.Utilities.Apps.CreateSearch.AdditionalPathItem.get_Additional() в D:\OKSPWatcher2\OKSPWatcher\OKSPWatcher\Utilities\Apps\CreateSearch\AdditionalPathItem.cs:строка 48
   в System.IO.__Error.WinIOError(Int32 errorCode, String maybeFullPath)
   в System.IO.Directory.InternalGetFileDirectoryNames(String path, String userPathOriginal, String searchPattern, Boolean includeFiles, Boolean includeDirs, SearchOption searchOption)
   в System.IO.DirectoryInfo.GetDirectories(String searchPattern, SearchOption searchOption)
   в OKSPWatcher.Utilities.Apps.CreateSearch.AdditionalPathItem.get_Additional() в D:\OKSPWatcher2\OKSPWatcher\OKSPWatcher\Utilities\Apps\CreateSearch\AdditionalPathItem.cs:строка 48
mscorlib
Void WinIOError(Int32, System.String)

[5:06] Ошибка при добавлении дочерних папок System.IO.IOException: Не найден сетевой путь.

   в System.IO.__Error.WinIOError(Int32 errorCode, String maybeFullPath)
   в System.IO.Directory.InternalGetFileDirectoryNames(String path, String userPathOriginal, String searchPattern, Boolean includeFiles, Boolean includeDirs, SearchOption searchOption)
   в System.IO.DirectoryInfo.GetDirectories(String searchPattern, SearchOption searchOption)
   в OKSPWatcher.Utilities.Apps.CreateSearch.AdditionalPathItem.get_Additional() в D:\OKSPWatcher2\OKSPWatcher\OKSPWatcher\Utilities\Apps\CreateSearch\AdditionalPathItem.cs:строка 48
   в System.IO.__Error.WinIOError(Int32 errorCode, String maybeFullPath)
   в System.IO.Directory.InternalGetFileDirectoryNames(String path, String userPathOriginal, String searchPattern, Boolean includeFiles, Boolean includeDirs, SearchOption searchOption)
   в System.IO.DirectoryInfo.GetDirectories(String searchPattern, SearchOption searchOption)
   в OKSPWatcher.Utilities.Apps.CreateSearch.AdditionalPathItem.get_Additional() в D:\OKSPWatcher2\OKSPWatcher\OKSPWatcher\Utilities\Apps\CreateSearch\AdditionalPathItem.cs:строка 48
mscorlib
Void WinIOError(Int32, System.String)

[5:06] Ошибка при добавлении дочерних папок System.IO.IOException: Не найден сетевой путь.

   в System.IO.__Error.WinIOError(Int32 errorCode, String maybeFullPath)
   в System.IO.Directory.InternalGetFileDirectoryNames(String path, String userPathOriginal, String searchPattern, Boolean includeFiles, Boolean includeDirs, SearchOption searchOption)
   в System.IO.DirectoryInfo.GetDirectories(String searchPattern, SearchOption searchOption)
   в OKSPWatcher.Utilities.Apps.CreateSearch.AdditionalPathItem.get_Additional() в D:\OKSPWatcher2\OKSPWatcher\OKSPWatcher\Utilities\Apps\CreateSearch\AdditionalPathItem.cs:строка 48
   в System.IO.__Error.WinIOError(Int32 errorCode, String maybeFullPath)
   в System.IO.Directory.InternalGetFileDirectoryNames(String path, String userPathOriginal, String searchPattern, Boolean includeFiles, Boolean includeDirs, SearchOption searchOption)
   в System.IO.DirectoryInfo.GetDirectories(String searchPattern, SearchOption searchOption)
   в OKSPWatcher.Utilities.Apps.CreateSearch.AdditionalPathItem.get_Additional() в D:\OKSPWatcher2\OKSPWatcher\OKSPWatcher\Utilities\Apps\CreateSearch\AdditionalPathItem.cs:строка 48
mscorlib
Void WinIOError(Int32, System.String)

[5:06] Ошибка при добавлении дочерних папок System.IO.IOException: Не найден сетевой путь.

   в System.IO.__Error.WinIOError(Int32 errorCode, String maybeFullPath)
   в System.IO.Directory.InternalGetFileDirectoryNames(String path, String userPathOriginal, String searchPattern, Boolean includeFiles, Boolean includeDirs, SearchOption searchOption)
   в System.IO.DirectoryInfo.GetDirectories(String searchPattern, SearchOption searchOption)
   в OKSPWatcher.Utilities.Apps.CreateSearch.AdditionalPathItem.get_Additional() в D:\OKSPWatcher2\OKSPWatcher\OKSPWatcher\Utilities\Apps\CreateSearch\AdditionalPathItem.cs:строка 48
   в System.IO.__Error.WinIOError(Int32 errorCode, String maybeFullPath)
   в System.IO.Directory.InternalGetFileDirectoryNames(String path, String userPathOriginal, String searchPattern, Boolean includeFiles, Boolean includeDirs, SearchOption searchOption)
   в System.IO.DirectoryInfo.GetDirectories(String searchPattern, SearchOption searchOption)
   в OKSPWatcher.Utilities.Apps.CreateSearch.AdditionalPathItem.get_Additional() в D:\OKSPWatcher2\OKSPWatcher\OKSPWatcher\Utilities\Apps\CreateSearch\AdditionalPathItem.cs:строка 48
mscorlib
Void WinIOError(Int32, System.String)

[5:06] Ошибка при добавлении дочерних папок System.IO.IOException: Не найден сетевой путь.

   в System.IO.__Error.WinIOError(Int32 errorCode, String maybeFullPath)
   в System.IO.Directory.InternalGetFileDirectoryNames(String path, String userPathOriginal, String searchPattern, Boolean includeFiles, Boolean includeDirs, SearchOption searchOption)
   в System.IO.DirectoryInfo.GetDirectories(String searchPattern, SearchOption searchOption)
   в OKSPWatcher.Utilities.Apps.CreateSearch.AdditionalPathItem.get_Additional() в D:\OKSPWatcher2\OKSPWatcher\OKSPWatcher\Utilities\Apps\CreateSearch\AdditionalPathItem.cs:строка 48
   в System.IO.__Error.WinIOError(Int32 errorCode, String maybeFullPath)
   в System.IO.Directory.InternalGetFileDirectoryNames(String path, String userPathOriginal, String searchPattern, Boolean includeFiles, Boolean includeDirs, SearchOption searchOption)
   в System.IO.DirectoryInfo.GetDirectories(String searchPattern, SearchOption searchOption)
   в OKSPWatcher.Utilities.Apps.CreateSearch.AdditionalPathItem.get_Additional() в D:\OKSPWatcher2\OKSPWatcher\OKSPWatcher\Utilities\Apps\CreateSearch\AdditionalPathItem.cs:строка 48
mscorlib
Void WinIOError(Int32, System.String)

[5:06] Ошибка при добавлении дочерних папок System.IO.IOException: Не найден сетевой путь.

   в System.IO.__Error.WinIOError(Int32 errorCode, String maybeFullPath)
   в System.IO.Directory.InternalGetFileDirectoryNames(String path, String userPathOriginal, String searchPattern, Boolean includeFiles, Boolean includeDirs, SearchOption searchOption)
   в System.IO.DirectoryInfo.GetDirectories(String searchPattern, SearchOption searchOption)
   в OKSPWatcher.Utilities.Apps.CreateSearch.AdditionalPathItem.get_Additional() в D:\OKSPWatcher2\OKSPWatcher\OKSPWatcher\Utilities\Apps\CreateSearch\AdditionalPathItem.cs:строка 48
   в System.IO.__Error.WinIOError(Int32 errorCode, String maybeFullPath)
   в System.IO.Directory.InternalGetFileDirectoryNames(String path, String userPathOriginal, String searchPattern, Boolean includeFiles, Boolean includeDirs, SearchOption searchOption)
   в System.IO.DirectoryInfo.GetDirectories(String searchPattern, SearchOption searchOption)
   в OKSPWatcher.Utilities.Apps.CreateSearch.AdditionalPathItem.get_Additional() в D:\OKSPWatcher2\OKSPWatcher\OKSPWatcher\Utilities\Apps\CreateSearch\AdditionalPathItem.cs:строка 48
mscorlib
Void WinIOError(Int32, System.String)

[5:06] Ошибка при добавлении дочерних папок System.IO.IOException: Не найден сетевой путь.

   в System.IO.__Error.WinIOError(Int32 errorCode, String maybeFullPath)
   в System.IO.Directory.InternalGetFileDirectoryNames(String path, String userPathOriginal, String searchPattern, Boolean includeFiles, Boolean includeDirs, SearchOption searchOption)
   в System.IO.DirectoryInfo.GetDirectories(String searchPattern, SearchOption searchOption)
   в OKSPWatcher.Utilities.Apps.CreateSearch.AdditionalPathItem.get_Additional() в D:\OKSPWatcher2\OKSPWatcher\OKSPWatcher\Utilities\Apps\CreateSearch\AdditionalPathItem.cs:строка 48
   в System.IO.__Error.WinIOError(Int32 errorCode, String maybeFullPath)
   в System.IO.Directory.InternalGetFileDirectoryNames(String path, String userPathOriginal, String searchPattern, Boolean includeFiles, Boolean includeDirs, SearchOption searchOption)
   в System.IO.DirectoryInfo.GetDirectories(String searchPattern, SearchOption searchOption)
   в OKSPWatcher.Utilities.Apps.CreateSearch.AdditionalPathItem.get_Additional() в D:\OKSPWatcher2\OKSPWatcher\OKSPWatcher\Utilities\Apps\CreateSearch\AdditionalPathItem.cs:строка 48
mscorlib
Void WinIOError(Int32, System.String)

[5:07] Ошибка при добавлении дочерних папок System.IO.IOException: Не найден сетевой путь.

   в System.IO.__Error.WinIOError(Int32 errorCode, String maybeFullPath)
   в System.IO.Directory.InternalGetFileDirectoryNames(String path, String userPathOriginal, String searchPattern, Boolean includeFiles, Boolean includeDirs, SearchOption searchOption)
   в System.IO.DirectoryInfo.GetDirectories(String searchPattern, SearchOption searchOption)
   в OKSPWatcher.Utilities.Apps.CreateSearch.AdditionalPathItem.get_Additional() в D:\OKSPWatcher2\OKSPWatcher\OKSPWatcher\Utilities\Apps\CreateSearch\AdditionalPathItem.cs:строка 48
   в System.IO.__Error.WinIOError(Int32 errorCode, String maybeFullPath)
   в System.IO.Directory.InternalGetFileDirectoryNames(String path, String userPathOriginal, String searchPattern, Boolean includeFiles, Boolean includeDirs, SearchOption searchOption)
   в System.IO.DirectoryInfo.GetDirectories(String searchPattern, SearchOption searchOption)
   в OKSPWatcher.Utilities.Apps.CreateSearch.AdditionalPathItem.get_Additional() в D:\OKSPWatcher2\OKSPWatcher\OKSPWatcher\Utilities\Apps\CreateSearch\AdditionalPathItem.cs:строка 48
mscorlib
Void WinIOError(Int32, System.String)

[5:07] Ошибка при добавлении дочерних папок System.IO.IOException: Не найден сетевой путь.

   в System.IO.__Error.WinIOError(Int32 errorCode, String maybeFullPath)
   в System.IO.Directory.InternalGetFileDirectoryNames(String path, String userPathOriginal, String searchPattern, Boolean includeFiles, Boolean includeDirs, SearchOption searchOption)
   в System.IO.DirectoryInfo.GetDirectories(String searchPattern, SearchOption searchOption)
   в OKSPWatcher.Utilities.Apps.CreateSearch.AdditionalPathItem.get_Additional() в D:\OKSPWatcher2\OKSPWatcher\OKSPWatcher\Utilities\Apps\CreateSearch\AdditionalPathItem.cs:строка 48
   в System.IO.__Error.WinIOError(Int32 errorCode, String maybeFullPath)
   в System.IO.Directory.InternalGetFileDirectoryNames(String path, String userPathOriginal, String searchPattern, Boolean includeFiles, Boolean includeDirs, SearchOption searchOption)
   в System.IO.DirectoryInfo.GetDirectories(String searchPattern, SearchOption searchOption)
   в OKSPWatcher.Utilities.Apps.CreateSearch.AdditionalPathItem.get_Additional() в D:\OKSPWatcher2\OKSPWatcher\OKSPWatcher\Utilities\Apps\CreateSearch\AdditionalPathItem.cs:строка 48
mscorlib
Void WinIOError(Int32, System.String)

[5:07] Ошибка при добавлении дочерних папок System.IO.IOException: Не найден сетевой путь.

   в System.IO.__Error.WinIOError(Int32 errorCode, String maybeFullPath)
   в System.IO.Directory.InternalGetFileDirectoryNames(String path, String userPathOriginal, String searchPattern, Boolean includeFiles, Boolean includeDirs, SearchOption searchOption)
   в System.IO.DirectoryInfo.GetDirectories(String searchPattern, SearchOption searchOption)
   в OKSPWatcher.Utilities.Apps.CreateSearch.AdditionalPathItem.get_Additional() в D:\OKSPWatcher2\OKSPWatcher\OKSPWatcher\Utilities\Apps\CreateSearch\AdditionalPathItem.cs:строка 48
   в System.IO.__Error.WinIOError(Int32 errorCode, String maybeFullPath)
   в System.IO.Directory.InternalGetFileDirectoryNames(String path, String userPathOriginal, String searchPattern, Boolean includeFiles, Boolean includeDirs, SearchOption searchOption)
   в System.IO.DirectoryInfo.GetDirectories(String searchPattern, SearchOption searchOption)
   в OKSPWatcher.Utilities.Apps.CreateSearch.AdditionalPathItem.get_Additional() в D:\OKSPWatcher2\OKSPWatcher\OKSPWatcher\Utilities\Apps\CreateSearch\AdditionalPathItem.cs:строка 48
mscorlib
Void WinIOError(Int32, System.String)

[5:07] Ошибка при открытии файла System.ComponentModel.Win32Exception: Не найден сетевой путь
   в System.Diagnostics.Process.StartWithShellExecuteEx(ProcessStartInfo startInfo)
   в System.Diagnostics.Process.Start()
   в System.Diagnostics.Process.Start(ProcessStartInfo startInfo)
   в System.Diagnostics.Process.Start(String fileName)
   в OKSPWatcher.Utilities.Apps.CreateSearchWindow.OpenFile(Object sender, RoutedEventArgs e) в D:\OKSPWatcher2\OKSPWatcher\OKSPWatcher\Utilities\Apps\CreateSearchWindow.xaml.cs:строка 357
   в System.Diagnostics.Process.StartWithShellExecuteEx(ProcessStartInfo startInfo)
   в System.Diagnostics.Process.Start()
   в System.Diagnostics.Process.Start(ProcessStartInfo startInfo)
   в System.Diagnostics.Process.Start(String fileName)
   в OKSPWatcher.Utilities.Apps.CreateSearchWindow.OpenFile(Object sender, RoutedEventArgs e) в D:\OKSPWatcher2\OKSPWatcher\OKSPWatcher\Utilities\Apps\CreateSearchWindow.xaml.cs:строка 357
System
Boolean StartWithShellExecuteEx(System.Diagnostics.ProcessStartInfo)

