[7:43] Фоновая задача 6451435 не может быть выполнена
[7:43] Фоновая задача 9797473 не может быть выполнена
[7:43] Фоновая задача 9797473 не может быть выполнена
[7:43] Фоновая задача 9797473 не может быть выполнена
