[6:40] Open transaction for Users
[6:40] [SQL Read] SELECT * FROM Users WHERE LoginName = '056nvg0128' LIMIT 1
[6:40] Open transaction for Departments
[6:40] [SQL Read] SELECT * FROM Departments WHERE Id = 5 LIMIT 1
[6:40] Open transaction for AppItems
[6:40] [SQL Read] SELECT * FROM AppItems ORDER BY Id
[6:40] Open transaction for UserDatas
[6:40] [SQL Read] SELECT * FROM UserDatas WHERE UserId = 55
[6:40] Open transaction for RuleGroups
[6:40] [SQL Read] SELECT * FROM RuleGroups WHERE Id = 3 LIMIT 1
[6:40] Open transaction for RuleItems
[6:40] [SQL Read] SELECT * FROM RuleItems WHERE Id = 1 LIMIT 1
[6:40] [SQL Read] SELECT * FROM RuleItems WHERE Id = 3 LIMIT 1
[6:40] Open transaction for Settings
[6:40] [Scalar] SELECT StringValue FROM Settings WHERE Key = 'BackupPath'
[6:40] [Scalar] SELECT LongValue FROM Settings WHERE Key = 'BackupDaysToWarn'
[6:40] [Scalar] SELECT LongValue FROM Settings WHERE Key = 'LastBackup'
[6:40] Close transaction for Users
[6:40] Close transaction for Departments
[6:40] Close transaction for AppItems
[6:40] Close transaction for UserDatas
[6:40] Close transaction for RuleItems
[6:40] Close transaction for RuleGroups
[6:40] Close transaction for Settings
[6:40] Open transaction for Settings
[6:40] [Scalar] SELECT StringValue FROM Settings WHERE Key = 'PathToChanges'
[6:40] [Background] Register 56140151
[6:40] Обновление извещений...
[6:40] Open transaction for ChangeImages
[6:40] [SQL Read] SELECT PathToImage FROM ChangeImages ORDER BY Id
[6:40] Close transaction for Settings
[6:40] Close transaction for ChangeImages
[6:40] [Background] Register 1997173
[6:40] [Background] Unregister 56140151
[6:40] Open transaction for Settings
[6:40] [Scalar] SELECT LongValue FROM Settings WHERE Key = 'DaysToWarn'
[6:40] [Scalar] SELECT StringValue FROM Settings WHERE Key = 'Changes3DAvailable'
[6:40] [Background] Unregister 1997173
[6:40] Open transaction for Products
[6:40] [SQL Read] SELECT * FROM Products WHERE Id = 1 LIMIT 1
[6:40] Open transaction for Departments
[6:40] [SQL Read] SELECT * FROM Departments WHERE Id = 1 LIMIT 1
[6:40] [SQL Read] SELECT * FROM Products WHERE Id = 2 LIMIT 1
[6:40] [SQL Read] SELECT * FROM Products WHERE Id = 41 LIMIT 1
[6:40] [SQL Read] SELECT * FROM Departments WHERE Id = 2 LIMIT 1
[6:40] [SQL Read] SELECT * FROM Products WHERE Id = 42 LIMIT 1
[6:40] [SQL Read] SELECT * FROM Products WHERE Id = 44 LIMIT 1
[6:40] [SQL Read] SELECT * FROM Products WHERE Id = 45 LIMIT 1
[6:40] [SQL Read] SELECT * FROM Products WHERE Id = 47 LIMIT 1
[6:40] [SQL Read] SELECT * FROM Products WHERE Id = 49 LIMIT 1
[6:40] [SQL Read] SELECT * FROM Products WHERE Id = 50 LIMIT 1
[6:40] [SQL Read] SELECT * FROM Products WHERE Id = 55 LIMIT 1
[6:40] [SQL Read] SELECT * FROM Products WHERE Id = 56 LIMIT 1
[6:40] [SQL Read] SELECT * FROM Products WHERE Id = 58 LIMIT 1
[6:40] [SQL Read] SELECT * FROM Products WHERE Id = 5 LIMIT 1
[6:40] [SQL Read] SELECT * FROM Products WHERE Id = 6 LIMIT 1
[6:40] [SQL Read] SELECT * FROM Products WHERE Id = 7 LIMIT 1
[6:40] [SQL Read] SELECT * FROM Products WHERE Id = 8 LIMIT 1
[6:40] [SQL Read] SELECT * FROM Products WHERE Id = 9 LIMIT 1
[6:40] [SQL Read] SELECT * FROM Products WHERE Id = 10 LIMIT 1
[6:40] [SQL Read] SELECT * FROM Products WHERE Id = 60 LIMIT 1
[6:40] [SQL Read] SELECT * FROM Products WHERE Id = 61 LIMIT 1
[6:40] [SQL Read] SELECT * FROM Products WHERE Id = 62 LIMIT 1
[6:40] [SQL Read] SELECT * FROM Products WHERE Id = 63 LIMIT 1
[6:40] [SQL Read] SELECT * FROM Products WHERE Id = 64 LIMIT 1
[6:40] [SQL Read] SELECT * FROM Products WHERE Id = 65 LIMIT 1
[6:40] [SQL Read] SELECT * FROM Products WHERE Id = 11 LIMIT 1
[6:40] [SQL Read] SELECT * FROM Products WHERE Id = 15 LIMIT 1
[6:40] [SQL Read] SELECT * FROM Products WHERE Id = 12 LIMIT 1
[6:40] [SQL Read] SELECT * FROM Products WHERE Id = 84 LIMIT 1
[6:40] [SQL Read] SELECT * FROM Departments WHERE Id = 3 LIMIT 1
[6:40] [SQL Read] SELECT * FROM Products WHERE Id = 99 LIMIT 1
[6:40] [SQL Read] SELECT * FROM Products WHERE Id = 86 LIMIT 1
[6:40] [SQL Read] SELECT * FROM Products WHERE Id = 69 LIMIT 1
[6:40] [SQL Read] SELECT * FROM Products WHERE Id = 70 LIMIT 1
[6:40] [SQL Read] SELECT * FROM Products WHERE Id = 71 LIMIT 1
[6:40] [SQL Read] SELECT * FROM Products WHERE Id = 46 LIMIT 1
[6:40] [SQL Read] SELECT * FROM Products WHERE Id = 105 LIMIT 1
[6:40] [SQL Read] SELECT * FROM Products WHERE Id = 94 LIMIT 1
[6:40] [SQL Read] SELECT * FROM Products WHERE Id = 87 LIMIT 1
[6:40] [SQL Read] SELECT * FROM Products WHERE Id = 54 LIMIT 1
[6:40] [SQL Read] SELECT * FROM Products WHERE Id = 57 LIMIT 1
[6:40] [SQL Read] SELECT * FROM Products WHERE Id = 92 LIMIT 1
[6:40] [SQL Read] SELECT * FROM Products WHERE Id = 13 LIMIT 1
[6:40] [SQL Read] SELECT * FROM Products WHERE Id = 34 LIMIT 1
[6:40] [SQL Read] SELECT * FROM Products WHERE Id = 90 LIMIT 1
[6:40] [SQL Read] SELECT * FROM Products WHERE Id = 102 LIMIT 1
[6:40] [SQL Read] SELECT * FROM Products WHERE Id = 37 LIMIT 1
[6:40] [SQL Read] SELECT * FROM Products WHERE Id = 31 LIMIT 1
[6:40] [SQL Read] SELECT * FROM Products WHERE Id = 103 LIMIT 1
[6:40] [SQL Read] SELECT * FROM Products WHERE Id = 32 LIMIT 1
[6:40] [SQL Read] SELECT * FROM Products WHERE Id = 33 LIMIT 1
[6:40] [SQL Read] SELECT * FROM Products WHERE Id = 40 LIMIT 1
[6:40] [SQL Read] SELECT * FROM Products WHERE Id = 96 LIMIT 1
[6:40] [SQL Read] SELECT * FROM Products WHERE Id = 98 LIMIT 1
[6:40] [SQL Read] SELECT * FROM Products WHERE Id = 83 LIMIT 1
[6:40] Open transaction for ChangeItems
[6:40] [Scalar] SELECT COUNT(Id) FROM ChangeItems WHERE WorkedIn3D = 0 AND Product = 1
[6:40] [Scalar] SELECT COUNT(Id) FROM ChangeItems WHERE WorkedIn3D = 0 AND Product = 2
[6:40] [Scalar] SELECT COUNT(Id) FROM ChangeItems WHERE WorkedIn3D = 0 AND Product = 41
[6:40] [Scalar] SELECT COUNT(Id) FROM ChangeItems WHERE WorkedIn3D = 0 AND Product = 42
[6:40] [Scalar] SELECT COUNT(Id) FROM ChangeItems WHERE WorkedIn3D = 0 AND Product = 44
[6:40] [Scalar] SELECT COUNT(Id) FROM ChangeItems WHERE WorkedIn3D = 0 AND Product = 45
[6:40] [Scalar] SELECT COUNT(Id) FROM ChangeItems WHERE WorkedIn3D = 0 AND Product = 47
[6:40] [Scalar] SELECT COUNT(Id) FROM ChangeItems WHERE WorkedIn3D = 0 AND Product = 49
[6:40] [Scalar] SELECT COUNT(Id) FROM ChangeItems WHERE WorkedIn3D = 0 AND Product = 50
[6:40] [Scalar] SELECT COUNT(Id) FROM ChangeItems WHERE WorkedIn3D = 0 AND Product = 55
[6:40] [Scalar] SELECT COUNT(Id) FROM ChangeItems WHERE WorkedIn3D = 0 AND Product = 56
[6:40] [Scalar] SELECT COUNT(Id) FROM ChangeItems WHERE WorkedIn3D = 0 AND Product = 58
[6:40] [Scalar] SELECT COUNT(Id) FROM ChangeItems WHERE WorkedIn3D = 0 AND Product = 5
[6:40] [Scalar] SELECT COUNT(Id) FROM ChangeItems WHERE WorkedIn3D = 0 AND Product = 6
[6:40] [Scalar] SELECT COUNT(Id) FROM ChangeItems WHERE WorkedIn3D = 0 AND Product = 7
[6:40] Close transaction for Settings
[6:40] [Scalar] SELECT COUNT(Id) FROM ChangeItems WHERE WorkedIn3D = 0 AND Product = 8
[6:40] [Scalar] SELECT COUNT(Id) FROM ChangeItems WHERE WorkedIn3D = 0 AND Product = 9
[6:40] [Scalar] SELECT COUNT(Id) FROM ChangeItems WHERE WorkedIn3D = 0 AND Product = 10
[6:40] [Scalar] SELECT COUNT(Id) FROM ChangeItems WHERE WorkedIn3D = 0 AND Product = 60
[6:40] [Scalar] SELECT COUNT(Id) FROM ChangeItems WHERE WorkedIn3D = 0 AND Product = 61
[6:40] [Scalar] SELECT COUNT(Id) FROM ChangeItems WHERE WorkedIn3D = 0 AND Product = 62
[6:40] [Scalar] SELECT COUNT(Id) FROM ChangeItems WHERE WorkedIn3D = 0 AND Product = 63
[6:40] [Scalar] SELECT COUNT(Id) FROM ChangeItems WHERE WorkedIn3D = 0 AND Product = 64
[6:40] [Scalar] SELECT COUNT(Id) FROM ChangeItems WHERE WorkedIn3D = 0 AND Product = 65
[6:40] [Scalar] SELECT COUNT(Id) FROM ChangeItems WHERE WorkedIn3D = 0 AND Product = 11
[6:40] [Scalar] SELECT COUNT(Id) FROM ChangeItems WHERE WorkedIn3D = 0 AND Product = 15
[6:40] [Scalar] SELECT COUNT(Id) FROM ChangeItems WHERE WorkedIn3D = 0 AND Product = 12
[6:40] [Scalar] SELECT COUNT(Id) FROM ChangeItems WHERE WorkedIn3D = 0 AND Product = 84
[6:40] [Scalar] SELECT COUNT(Id) FROM ChangeItems WHERE WorkedIn3D = 0 AND Product = 99
[6:40] [Scalar] SELECT COUNT(Id) FROM ChangeItems WHERE WorkedIn3D = 0 AND Product = 86
[6:40] [Scalar] SELECT COUNT(Id) FROM ChangeItems WHERE WorkedIn3D = 0 AND Product = 69
[6:40] [Scalar] SELECT COUNT(Id) FROM ChangeItems WHERE WorkedIn3D = 0 AND Product = 70
[6:40] [Scalar] SELECT COUNT(Id) FROM ChangeItems WHERE WorkedIn3D = 0 AND Product = 71
[6:40] [Scalar] SELECT COUNT(Id) FROM ChangeItems WHERE WorkedIn3D = 0 AND Product = 46
[6:40] [Scalar] SELECT COUNT(Id) FROM ChangeItems WHERE WorkedIn3D = 0 AND Product = 105
[6:40] [Scalar] SELECT COUNT(Id) FROM ChangeItems WHERE WorkedIn3D = 0 AND Product = 94
[6:40] [Scalar] SELECT COUNT(Id) FROM ChangeItems WHERE WorkedIn3D = 0 AND Product = 87
[6:40] [Scalar] SELECT COUNT(Id) FROM ChangeItems WHERE WorkedIn3D = 0 AND Product = 54
[6:40] [Scalar] SELECT COUNT(Id) FROM ChangeItems WHERE WorkedIn3D = 0 AND Product = 57
[6:40] [Scalar] SELECT COUNT(Id) FROM ChangeItems WHERE WorkedIn3D = 0 AND Product = 92
[6:40] [Scalar] SELECT COUNT(Id) FROM ChangeItems WHERE WorkedIn3D = 0 AND Product = 13
[6:40] [Scalar] SELECT COUNT(Id) FROM ChangeItems WHERE WorkedIn3D = 0 AND Product = 34
[6:40] [Scalar] SELECT COUNT(Id) FROM ChangeItems WHERE WorkedIn3D = 0 AND Product = 90
[6:40] [Scalar] SELECT COUNT(Id) FROM ChangeItems WHERE WorkedIn3D = 0 AND Product = 102
[6:40] [Scalar] SELECT COUNT(Id) FROM ChangeItems WHERE WorkedIn3D = 0 AND Product = 37
[6:40] [Scalar] SELECT COUNT(Id) FROM ChangeItems WHERE WorkedIn3D = 0 AND Product = 31
[6:40] [Scalar] SELECT COUNT(Id) FROM ChangeItems WHERE WorkedIn3D = 0 AND Product = 103
[6:40] [Scalar] SELECT COUNT(Id) FROM ChangeItems WHERE WorkedIn3D = 0 AND Product = 32
[6:40] [Scalar] SELECT COUNT(Id) FROM ChangeItems WHERE WorkedIn3D = 0 AND Product = 33
[6:40] [Scalar] SELECT COUNT(Id) FROM ChangeItems WHERE WorkedIn3D = 0 AND Product = 40
[6:40] [Scalar] SELECT COUNT(Id) FROM ChangeItems WHERE WorkedIn3D = 0 AND Product = 96
[6:40] Close transaction for Departments
[6:40] Close transaction for Products
[6:40] [Scalar] SELECT COUNT(Id) FROM ChangeItems WHERE WorkedIn3D = 0 AND Product = 98
[6:40] [Scalar] SELECT COUNT(Id) FROM ChangeItems WHERE WorkedIn3D = 0 AND Product = 83
[6:40] [Scalar] SELECT COUNT(Id) FROM ChangeItems WHERE WorkedIn3D = 0 AND Product = 1
[6:40] [Scalar] SELECT COUNT(Id) FROM ChangeItems WHERE WorkedIn3D = 0 AND Product = 2
[6:40] [Scalar] SELECT COUNT(Id) FROM ChangeItems WHERE WorkedIn3D = 0 AND Product = 41
[6:40] [Scalar] SELECT COUNT(Id) FROM ChangeItems WHERE WorkedIn3D = 0 AND Product = 42
[6:40] [Scalar] SELECT COUNT(Id) FROM ChangeItems WHERE WorkedIn3D = 0 AND Product = 44
[6:40] [Scalar] SELECT COUNT(Id) FROM ChangeItems WHERE WorkedIn3D = 0 AND Product = 45
[6:40] [Scalar] SELECT COUNT(Id) FROM ChangeItems WHERE WorkedIn3D = 0 AND Product = 47
[6:40] [Scalar] SELECT COUNT(Id) FROM ChangeItems WHERE WorkedIn3D = 0 AND Product = 49
[6:40] [Scalar] SELECT COUNT(Id) FROM ChangeItems WHERE WorkedIn3D = 0 AND Product = 50
[6:40] [Scalar] SELECT COUNT(Id) FROM ChangeItems WHERE WorkedIn3D = 0 AND Product = 55
[6:40] [Scalar] SELECT COUNT(Id) FROM ChangeItems WHERE WorkedIn3D = 0 AND Product = 56
[6:40] [Scalar] SELECT COUNT(Id) FROM ChangeItems WHERE WorkedIn3D = 0 AND Product = 58
[6:40] [Scalar] SELECT COUNT(Id) FROM ChangeItems WHERE WorkedIn3D = 0 AND Product = 5
[6:40] [Scalar] SELECT COUNT(Id) FROM ChangeItems WHERE WorkedIn3D = 0 AND Product = 6
[6:40] [Scalar] SELECT COUNT(Id) FROM ChangeItems WHERE WorkedIn3D = 0 AND Product = 7
[6:40] [Scalar] SELECT COUNT(Id) FROM ChangeItems WHERE WorkedIn3D = 0 AND Product = 8
[6:40] [Scalar] SELECT COUNT(Id) FROM ChangeItems WHERE WorkedIn3D = 0 AND Product = 9
[6:40] [Scalar] SELECT COUNT(Id) FROM ChangeItems WHERE WorkedIn3D = 0 AND Product = 10
[6:40] [Scalar] SELECT COUNT(Id) FROM ChangeItems WHERE WorkedIn3D = 0 AND Product = 60
[6:40] [Scalar] SELECT COUNT(Id) FROM ChangeItems WHERE WorkedIn3D = 0 AND Product = 61
[6:40] [Scalar] SELECT COUNT(Id) FROM ChangeItems WHERE WorkedIn3D = 0 AND Product = 62
[6:40] [Scalar] SELECT COUNT(Id) FROM ChangeItems WHERE WorkedIn3D = 0 AND Product = 63
[6:40] [Scalar] SELECT COUNT(Id) FROM ChangeItems WHERE WorkedIn3D = 0 AND Product = 64
[6:40] [Scalar] SELECT COUNT(Id) FROM ChangeItems WHERE WorkedIn3D = 0 AND Product = 65
[6:40] [Scalar] SELECT COUNT(Id) FROM ChangeItems WHERE WorkedIn3D = 0 AND Product = 11
[6:40] [Scalar] SELECT COUNT(Id) FROM ChangeItems WHERE WorkedIn3D = 0 AND Product = 15
[6:40] Close transaction for ChangeItems
[6:40] [Background] Register 1997173
[6:40] Open transaction for ChangeItems
[6:40] [SQL Read] SELECT * FROM ChangeItems WHERE Product = 47 ORDER BY ScanDate DESC
[6:40] Open transaction for Changes3DItems
[6:40] [SQL Read] SELECT * FROM Changes3DItems WHERE Change = 7211 LIMIT 1
[6:40] [SQL Read] SELECT * FROM Changes3DItems WHERE Change = 7213 LIMIT 1
[6:40] [SQL Read] SELECT * FROM Changes3DItems WHERE Change = 7212 LIMIT 1
[6:40] [SQL Read] SELECT * FROM Changes3DItems WHERE Change = 7162 LIMIT 1
[6:40] [SQL Read] SELECT * FROM Changes3DItems WHERE Change = 7157 LIMIT 1
[6:40] [SQL Read] SELECT * FROM Changes3DItems WHERE Change = 7161 LIMIT 1
[6:40] [SQL Read] SELECT * FROM Changes3DItems WHERE Change = 7158 LIMIT 1
[6:40] [SQL Read] SELECT * FROM Changes3DItems WHERE Change = 7159 LIMIT 1
[6:40] [SQL Read] SELECT * FROM Changes3DItems WHERE Change = 7160 LIMIT 1
[6:40] [SQL Read] SELECT * FROM Changes3DItems WHERE Change = 7095 LIMIT 1
[6:40] [SQL Read] SELECT * FROM Changes3DItems WHERE Change = 7096 LIMIT 1
[6:40] [SQL Read] SELECT * FROM Changes3DItems WHERE Change = 6981 LIMIT 1
[6:40] [SQL Read] SELECT * FROM Changes3DItems WHERE Change = 6982 LIMIT 1
[6:40] [SQL Read] SELECT * FROM Changes3DItems WHERE Change = 6901 LIMIT 1
[6:40] [SQL Read] SELECT * FROM Changes3DItems WHERE Change = 6902 LIMIT 1
[6:40] [SQL Read] SELECT * FROM Changes3DItems WHERE Change = 6905 LIMIT 1
[6:40] [SQL Read] SELECT * FROM Changes3DItems WHERE Change = 6904 LIMIT 1
[6:40] [SQL Read] SELECT * FROM Changes3DItems WHERE Change = 6903 LIMIT 1
[6:40] [SQL Read] SELECT * FROM Changes3DItems WHERE Change = 6652 LIMIT 1
[6:40] [SQL Read] SELECT * FROM Changes3DItems WHERE Change = 6654 LIMIT 1
[6:40] [SQL Read] SELECT * FROM Changes3DItems WHERE Change = 6651 LIMIT 1
[6:40] [SQL Read] SELECT * FROM Changes3DItems WHERE Change = 6653 LIMIT 1
[6:40] Close transaction for ChangeItems
[6:40] [SQL Read] SELECT * FROM Changes3DItems WHERE Change = 6339 LIMIT 1
[6:40] [SQL Read] SELECT * FROM Changes3DItems WHERE Change = 6338 LIMIT 1
[6:40] [SQL Read] SELECT * FROM Changes3DItems WHERE Change = 6296 LIMIT 1
[6:40] [SQL Read] SELECT * FROM Changes3DItems WHERE Change = 6207 LIMIT 1
[6:40] [SQL Read] SELECT * FROM Changes3DItems WHERE Change = 6074 LIMIT 1
[6:40] [SQL Read] SELECT * FROM Changes3DItems WHERE Change = 6075 LIMIT 1
[6:40] [SQL Read] SELECT * FROM Changes3DItems WHERE Change = 6077 LIMIT 1
[6:40] [SQL Read] SELECT * FROM Changes3DItems WHERE Change = 6076 LIMIT 1
[6:40] [SQL Read] SELECT * FROM Changes3DItems WHERE Change = 5872 LIMIT 1
[6:40] [SQL Read] SELECT * FROM Changes3DItems WHERE Change = 5871 LIMIT 1
[6:40] [SQL Read] SELECT * FROM Changes3DItems WHERE Change = 1678 LIMIT 1
[6:40] [SQL Read] SELECT * FROM Changes3DItems WHERE Change = 1675 LIMIT 1
[6:40] [SQL Read] SELECT * FROM Changes3DItems WHERE Change = 1674 LIMIT 1
[6:40] [SQL Read] SELECT * FROM Changes3DItems WHERE Change = 1663 LIMIT 1
[6:40] [SQL Read] SELECT * FROM Changes3DItems WHERE Change = 1668 LIMIT 1
[6:40] [SQL Read] SELECT * FROM Changes3DItems WHERE Change = 1670 LIMIT 1
[6:40] [SQL Read] SELECT * FROM Changes3DItems WHERE Change = 1669 LIMIT 1
[6:40] [SQL Read] SELECT * FROM Changes3DItems WHERE Change = 1673 LIMIT 1
[6:40] [SQL Read] SELECT * FROM Changes3DItems WHERE Change = 1671 LIMIT 1
[6:40] [SQL Read] SELECT * FROM Changes3DItems WHERE Change = 1666 LIMIT 1
[6:40] [SQL Read] SELECT * FROM Changes3DItems WHERE Change = 1667 LIMIT 1
[6:40] [SQL Read] SELECT * FROM Changes3DItems WHERE Change = 1672 LIMIT 1
[6:40] [SQL Read] SELECT * FROM Changes3DItems WHERE Change = 1662 LIMIT 1
[6:40] [SQL Read] SELECT * FROM Changes3DItems WHERE Change = 1659 LIMIT 1
[6:40] [SQL Read] SELECT * FROM Changes3DItems WHERE Change = 1665 LIMIT 1
[6:40] [SQL Read] SELECT * FROM Changes3DItems WHERE Change = 1664 LIMIT 1
[6:40] [SQL Read] SELECT * FROM Changes3DItems WHERE Change = 1661 LIMIT 1
[6:40] [SQL Read] SELECT * FROM Changes3DItems WHERE Change = 1660 LIMIT 1
[6:40] [SQL Read] SELECT * FROM Changes3DItems WHERE Change = 1658 LIMIT 1
[6:40] [SQL Read] SELECT * FROM Changes3DItems WHERE Change = 1645 LIMIT 1
[6:40] [SQL Read] SELECT * FROM Changes3DItems WHERE Change = 1677 LIMIT 1
[6:40] [SQL Read] SELECT * FROM Changes3DItems WHERE Change = 1654 LIMIT 1
[6:40] [SQL Read] SELECT * FROM Changes3DItems WHERE Change = 1655 LIMIT 1
[6:40] [SQL Read] SELECT * FROM Changes3DItems WHERE Change = 1657 LIMIT 1
[6:40] [SQL Read] SELECT * FROM Changes3DItems WHERE Change = 1676 LIMIT 1
[6:40] [SQL Read] SELECT * FROM Changes3DItems WHERE Change = 1656 LIMIT 1
[6:40] [SQL Read] SELECT * FROM Changes3DItems WHERE Change = 1652 LIMIT 1
[6:40] [SQL Read] SELECT * FROM Changes3DItems WHERE Change = 1653 LIMIT 1
[6:40] [SQL Read] SELECT * FROM Changes3DItems WHERE Change = 1649 LIMIT 1
[6:40] [SQL Read] SELECT * FROM Changes3DItems WHERE Change = 1651 LIMIT 1
[6:40] [SQL Read] SELECT * FROM Changes3DItems WHERE Change = 1646 LIMIT 1
[6:40] [SQL Read] SELECT * FROM Changes3DItems WHERE Change = 1648 LIMIT 1
[6:40] [SQL Read] SELECT * FROM Changes3DItems WHERE Change = 1650 LIMIT 1
[6:40] [SQL Read] SELECT * FROM Changes3DItems WHERE Change = 1647 LIMIT 1
[6:40] [SQL Read] SELECT * FROM Changes3DItems WHERE Change = 1681 LIMIT 1
[6:40] [SQL Read] SELECT * FROM Changes3DItems WHERE Change = 1682 LIMIT 1
[6:40] [SQL Read] SELECT * FROM Changes3DItems WHERE Change = 1683 LIMIT 1
[6:40] [SQL Read] SELECT * FROM Changes3DItems WHERE Change = 1684 LIMIT 1
[6:40] [SQL Read] SELECT * FROM Changes3DItems WHERE Change = 1686 LIMIT 1
[6:40] [SQL Read] SELECT * FROM Changes3DItems WHERE Change = 1685 LIMIT 1
[6:40] [SQL Read] SELECT * FROM Changes3DItems WHERE Change = 1688 LIMIT 1
[6:40] [SQL Read] SELECT * FROM Changes3DItems WHERE Change = 1687 LIMIT 1
[6:40] [SQL Read] SELECT * FROM Changes3DItems WHERE Change = 1689 LIMIT 1
[6:40] [SQL Read] SELECT * FROM Changes3DItems WHERE Change = 1690 LIMIT 1
[6:40] [SQL Read] SELECT * FROM Changes3DItems WHERE Change = 1691 LIMIT 1
[6:40] [SQL Read] SELECT * FROM Changes3DItems WHERE Change = 1693 LIMIT 1
[6:40] [SQL Read] SELECT * FROM Changes3DItems WHERE Change = 1692 LIMIT 1
[6:40] [SQL Read] SELECT * FROM Changes3DItems WHERE Change = 1694 LIMIT 1
[6:40] [SQL Read] SELECT * FROM Changes3DItems WHERE Change = 1696 LIMIT 1
[6:40] [SQL Read] SELECT * FROM Changes3DItems WHERE Change = 1695 LIMIT 1
[6:40] [SQL Read] SELECT * FROM Changes3DItems WHERE Change = 1697 LIMIT 1
[6:40] [SQL Read] SELECT * FROM Changes3DItems WHERE Change = 1698 LIMIT 1
[6:40] [SQL Read] SELECT * FROM Changes3DItems WHERE Change = 1699 LIMIT 1
[6:40] [SQL Read] SELECT * FROM Changes3DItems WHERE Change = 1701 LIMIT 1
[6:40] [SQL Read] SELECT * FROM Changes3DItems WHERE Change = 1702 LIMIT 1
[6:40] [SQL Read] SELECT * FROM Changes3DItems WHERE Change = 1700 LIMIT 1
[6:40] [SQL Read] SELECT * FROM Changes3DItems WHERE Change = 1703 LIMIT 1
[6:40] [SQL Read] SELECT * FROM Changes3DItems WHERE Change = 1706 LIMIT 1
[6:40] [SQL Read] SELECT * FROM Changes3DItems WHERE Change = 1704 LIMIT 1
[6:40] [SQL Read] SELECT * FROM Changes3DItems WHERE Change = 1708 LIMIT 1
[6:40] [SQL Read] SELECT * FROM Changes3DItems WHERE Change = 1709 LIMIT 1
[6:40] [SQL Read] SELECT * FROM Changes3DItems WHERE Change = 1707 LIMIT 1
[6:40] [SQL Read] SELECT * FROM Changes3DItems WHERE Change = 1710 LIMIT 1
[6:40] [SQL Read] SELECT * FROM Changes3DItems WHERE Change = 1705 LIMIT 1
[6:40] [SQL Read] SELECT * FROM Changes3DItems WHERE Change = 1711 LIMIT 1
[6:40] [SQL Read] SELECT * FROM Changes3DItems WHERE Change = 1712 LIMIT 1
[6:40] [SQL Read] SELECT * FROM Changes3DItems WHERE Change = 1713 LIMIT 1
[6:40] [SQL Read] SELECT * FROM Changes3DItems WHERE Change = 1680 LIMIT 1
[6:40] [SQL Read] SELECT * FROM Changes3DItems WHERE Change = 1679 LIMIT 1
[6:40] [SQL Read] SELECT * FROM Changes3DItems WHERE Change = 1714 LIMIT 1
[6:40] [SQL Read] SELECT * FROM Changes3DItems WHERE Change = 1715 LIMIT 1
[6:40] [SQL Read] SELECT * FROM Changes3DItems WHERE Change = 1716 LIMIT 1
[6:40] [SQL Read] SELECT * FROM Changes3DItems WHERE Change = 1717 LIMIT 1
[6:40] [SQL Read] SELECT * FROM Changes3DItems WHERE Change = 1718 LIMIT 1
[6:40] [SQL Read] SELECT * FROM Changes3DItems WHERE Change = 1719 LIMIT 1
[6:40] [SQL Read] SELECT * FROM Changes3DItems WHERE Change = 1720 LIMIT 1
[6:40] [SQL Read] SELECT * FROM Changes3DItems WHERE Change = 1722 LIMIT 1
[6:40] [SQL Read] SELECT * FROM Changes3DItems WHERE Change = 1724 LIMIT 1
[6:40] [SQL Read] SELECT * FROM Changes3DItems WHERE Change = 1721 LIMIT 1
[6:40] [SQL Read] SELECT * FROM Changes3DItems WHERE Change = 1723 LIMIT 1
[6:40] [SQL Read] SELECT * FROM Changes3DItems WHERE Change = 1725 LIMIT 1
[6:40] [SQL Read] SELECT * FROM Changes3DItems WHERE Change = 1726 LIMIT 1
[6:40] [SQL Read] SELECT * FROM Changes3DItems WHERE Change = 1727 LIMIT 1
[6:40] [SQL Read] SELECT * FROM Changes3DItems WHERE Change = 1728 LIMIT 1
[6:40] [SQL Read] SELECT * FROM Changes3DItems WHERE Change = 1729 LIMIT 1
[6:40] [SQL Read] SELECT * FROM Changes3DItems WHERE Change = 1730 LIMIT 1
[6:40] [SQL Read] SELECT * FROM Changes3DItems WHERE Change = 1736 LIMIT 1
[6:40] [SQL Read] SELECT * FROM Changes3DItems WHERE Change = 1737 LIMIT 1
[6:40] [SQL Read] SELECT * FROM Changes3DItems WHERE Change = 1738 LIMIT 1
[6:40] [SQL Read] SELECT * FROM Changes3DItems WHERE Change = 1739 LIMIT 1
[6:40] [SQL Read] SELECT * FROM Changes3DItems WHERE Change = 1740 LIMIT 1
[6:40] [SQL Read] SELECT * FROM Changes3DItems WHERE Change = 1741 LIMIT 1
[6:40] [SQL Read] SELECT * FROM Changes3DItems WHERE Change = 1742 LIMIT 1
[6:40] [SQL Read] SELECT * FROM Changes3DItems WHERE Change = 1743 LIMIT 1
[6:40] [SQL Read] SELECT * FROM Changes3DItems WHERE Change = 1745 LIMIT 1
[6:40] [SQL Read] SELECT * FROM Changes3DItems WHERE Change = 1744 LIMIT 1
[6:40] [SQL Read] SELECT * FROM Changes3DItems WHERE Change = 1746 LIMIT 1
[6:40] [SQL Read] SELECT * FROM Changes3DItems WHERE Change = 1749 LIMIT 1
[6:40] [SQL Read] SELECT * FROM Changes3DItems WHERE Change = 1747 LIMIT 1
[6:40] [SQL Read] SELECT * FROM Changes3DItems WHERE Change = 1748 LIMIT 1
[6:40] [SQL Read] SELECT * FROM Changes3DItems WHERE Change = 1750 LIMIT 1
[6:40] [SQL Read] SELECT * FROM Changes3DItems WHERE Change = 1751 LIMIT 1
[6:40] [SQL Read] SELECT * FROM Changes3DItems WHERE Change = 1758 LIMIT 1
[6:40] [SQL Read] SELECT * FROM Changes3DItems WHERE Change = 1757 LIMIT 1
[6:40] [SQL Read] SELECT * FROM Changes3DItems WHERE Change = 1754 LIMIT 1
[6:40] [SQL Read] SELECT * FROM Changes3DItems WHERE Change = 1756 LIMIT 1
[6:40] [SQL Read] SELECT * FROM Changes3DItems WHERE Change = 1755 LIMIT 1
[6:40] [SQL Read] SELECT * FROM Changes3DItems WHERE Change = 1752 LIMIT 1
[6:40] [SQL Read] SELECT * FROM Changes3DItems WHERE Change = 1753 LIMIT 1
[6:40] [SQL Read] SELECT * FROM Changes3DItems WHERE Change = 1759 LIMIT 1
[6:40] [SQL Read] SELECT * FROM Changes3DItems WHERE Change = 1760 LIMIT 1
[6:40] [SQL Read] SELECT * FROM Changes3DItems WHERE Change = 1761 LIMIT 1
[6:40] [SQL Read] SELECT * FROM Changes3DItems WHERE Change = 1762 LIMIT 1
[6:40] [SQL Read] SELECT * FROM Changes3DItems WHERE Change = 1735 LIMIT 1
[6:40] [SQL Read] SELECT * FROM Changes3DItems WHERE Change = 1731 LIMIT 1
[6:40] [SQL Read] SELECT * FROM Changes3DItems WHERE Change = 1734 LIMIT 1
[6:40] [SQL Read] SELECT * FROM Changes3DItems WHERE Change = 1733 LIMIT 1
[6:40] [SQL Read] SELECT * FROM Changes3DItems WHERE Change = 1732 LIMIT 1
[6:40] Open transaction for ChangeImages
[6:40] [SQL Read] SELECT * FROM ChangeImages WHERE Id = 20571 LIMIT 1
[6:40] [SQL Read] SELECT * FROM ChangeImages WHERE Id = 20574 LIMIT 1
[6:40] [SQL Read] SELECT * FROM ChangeImages WHERE Id = 20572 LIMIT 1
[6:40] [SQL Read] SELECT * FROM ChangeImages WHERE Id = 20573 LIMIT 1
[6:40] [SQL Read] SELECT * FROM ChangeImages WHERE Id = 20465 LIMIT 1
[6:40] [SQL Read] SELECT * FROM ChangeImages WHERE Id = 20466 LIMIT 1
[6:40] [SQL Read] SELECT * FROM ChangeImages WHERE Id = 20460 LIMIT 1
[6:40] [SQL Read] SELECT * FROM ChangeImages WHERE Id = 20464 LIMIT 1
[6:40] [SQL Read] SELECT * FROM ChangeImages WHERE Id = 20463 LIMIT 1
[6:40] [SQL Read] SELECT * FROM ChangeImages WHERE Id = 20303 LIMIT 1
[6:40] [SQL Read] SELECT * FROM ChangeImages WHERE Id = 20304 LIMIT 1
[6:40] [SQL Read] SELECT * FROM ChangeImages WHERE Id = 20305 LIMIT 1
[6:40] [SQL Read] SELECT * FROM ChangeImages WHERE Id = 20006 LIMIT 1
[6:40] [SQL Read] SELECT * FROM ChangeImages WHERE Id = 20007 LIMIT 1
[6:40] [SQL Read] SELECT * FROM ChangeImages WHERE Id = 19785 LIMIT 1
[6:40] [SQL Read] SELECT * FROM ChangeImages WHERE Id = 19790 LIMIT 1
[6:40] [SQL Read] SELECT * FROM ChangeImages WHERE Id = 19787 LIMIT 1
[6:40] [SQL Read] SELECT * FROM ChangeImages WHERE Id = 18984 LIMIT 1
[6:40] [SQL Read] SELECT * FROM ChangeImages WHERE Id = 18985 LIMIT 1
[6:40] [SQL Read] SELECT * FROM ChangeImages WHERE Id = 18992 LIMIT 1
[6:40] [SQL Read] SELECT * FROM ChangeImages WHERE Id = 18971 LIMIT 1
[6:40] [SQL Read] SELECT * FROM ChangeImages WHERE Id = 18972 LIMIT 1
[6:40] [SQL Read] SELECT * FROM ChangeImages WHERE Id = 18973 LIMIT 1
[6:40] [SQL Read] SELECT * FROM ChangeImages WHERE Id = 18974 LIMIT 1
[6:40] [SQL Read] SELECT * FROM ChangeImages WHERE Id = 18975 LIMIT 1
[6:40] [SQL Read] SELECT * FROM ChangeImages WHERE Id = 18976 LIMIT 1
[6:40] [SQL Read] SELECT * FROM ChangeImages WHERE Id = 18977 LIMIT 1
[6:40] [SQL Read] SELECT * FROM ChangeImages WHERE Id = 18978 LIMIT 1
[6:40] [SQL Read] SELECT * FROM ChangeImages WHERE Id = 18979 LIMIT 1
[6:40] [SQL Read] SELECT * FROM ChangeImages WHERE Id = 18980 LIMIT 1
[6:40] [SQL Read] SELECT * FROM ChangeImages WHERE Id = 18981 LIMIT 1
[6:40] [SQL Read] SELECT * FROM ChangeImages WHERE Id = 18982 LIMIT 1
[6:40] [SQL Read] SELECT * FROM ChangeImages WHERE Id = 18983 LIMIT 1
[6:40] [SQL Read] SELECT * FROM ChangeImages WHERE Id = 18986 LIMIT 1
[6:40] [SQL Read] SELECT * FROM ChangeImages WHERE Id = 18987 LIMIT 1
[6:40] [SQL Read] SELECT * FROM ChangeImages WHERE Id = 18988 LIMIT 1
[6:40] [SQL Read] SELECT * FROM ChangeImages WHERE Id = 18989 LIMIT 1
[6:40] [SQL Read] SELECT * FROM ChangeImages WHERE Id = 18990 LIMIT 1
[6:40] [SQL Read] SELECT * FROM ChangeImages WHERE Id = 18991 LIMIT 1
[6:40] [SQL Read] SELECT * FROM ChangeImages WHERE Id = 17557 LIMIT 1
[6:40] [SQL Read] SELECT * FROM ChangeImages WHERE Id = 17555 LIMIT 1
[6:40] [SQL Read] SELECT * FROM ChangeImages WHERE Id = 17556 LIMIT 1
[6:40] [SQL Read] SELECT * FROM ChangeImages WHERE Id = 17361 LIMIT 1
[6:40] [SQL Read] SELECT * FROM ChangeImages WHERE Id = 17362 LIMIT 1
[6:40] [SQL Read] SELECT * FROM ChangeImages WHERE Id = 17079 LIMIT 1
[6:40] [SQL Read] SELECT * FROM ChangeImages WHERE Id = 17080 LIMIT 1
[6:40] [SQL Read] SELECT * FROM ChangeImages WHERE Id = 17081 LIMIT 1
[6:40] [SQL Read] SELECT * FROM ChangeImages WHERE Id = 17082 LIMIT 1
[6:40] [SQL Read] SELECT * FROM ChangeImages WHERE Id = 17083 LIMIT 1
[6:40] [SQL Read] SELECT * FROM ChangeImages WHERE Id = 17084 LIMIT 1
[6:40] [SQL Read] SELECT * FROM ChangeImages WHERE Id = 17085 LIMIT 1
[6:40] [SQL Read] SELECT * FROM ChangeImages WHERE Id = 16775 LIMIT 1
[6:40] [SQL Read] SELECT * FROM ChangeImages WHERE Id = 16776 LIMIT 1
[6:40] [SQL Read] SELECT * FROM ChangeImages WHERE Id = 16777 LIMIT 1
[6:40] [SQL Read] SELECT * FROM ChangeImages WHERE Id = 16778 LIMIT 1
[6:40] [SQL Read] SELECT * FROM ChangeImages WHERE Id = 16779 LIMIT 1
[6:40] [SQL Read] SELECT * FROM ChangeImages WHERE Id = 16781 LIMIT 1
[6:40] [SQL Read] SELECT * FROM ChangeImages WHERE Id = 16780 LIMIT 1
[6:40] [SQL Read] SELECT * FROM ChangeImages WHERE Id = 16196 LIMIT 1
[6:40] [SQL Read] SELECT * FROM ChangeImages WHERE Id = 16197 LIMIT 1
[6:40] [SQL Read] SELECT * FROM ChangeImages WHERE Id = 16198 LIMIT 1
[6:40] [SQL Read] SELECT * FROM ChangeImages WHERE Id = 16199 LIMIT 1
[6:40] [SQL Read] SELECT * FROM ChangeImages WHERE Id = 16200 LIMIT 1
[6:40] [SQL Read] SELECT * FROM ChangeImages WHERE Id = 16201 LIMIT 1
[6:40] [SQL Read] SELECT * FROM ChangeImages WHERE Id = 5015 LIMIT 1
[6:40] [SQL Read] SELECT * FROM ChangeImages WHERE Id = 5016 LIMIT 1
[6:40] [Background] Unregister 1997173
[6:40] Close transaction for Changes3DItems
[6:40] Close transaction for ChangeImages
[6:40] Open transaction for ChangeImages
[6:40] [SQL Read] SELECT * FROM ChangeImages WHERE Id = 5195 LIMIT 1
[6:40] [SQL Read] SELECT * FROM ChangeImages WHERE Id = 5196 LIMIT 1
[6:40] Close transaction for ChangeImages
[6:40] Open transaction for ChangeImages
[6:40] [SQL Read] SELECT * FROM ChangeImages WHERE Id = 20461 LIMIT 1
[6:40] [SQL Read] SELECT * FROM ChangeImages WHERE Id = 20462 LIMIT 1
[6:40] [SQL Read] SELECT * FROM ChangeImages WHERE Id = 20008 LIMIT 1
[6:40] [SQL Read] SELECT * FROM ChangeImages WHERE Id = 19786 LIMIT 1
[6:40] Open transaction for Users
[6:40] [SQL Read] SELECT * FROM Users WHERE Id = 64 LIMIT 1
[6:40] [SQL Read] SELECT * FROM ChangeImages WHERE Id = 19788 LIMIT 1
[6:40] [SQL Read] SELECT * FROM ChangeImages WHERE Id = 19789 LIMIT 1
[6:40] Close transaction for ChangeImages
[6:40] Close transaction for Users
[6:40] Open transaction for ChangeImages
[6:40] [SQL Read] SELECT * FROM ChangeImages WHERE Id = 5011 LIMIT 1
[6:40] [SQL Read] SELECT * FROM ChangeImages WHERE Id = 5012 LIMIT 1
[6:40] [SQL Read] SELECT * FROM ChangeImages WHERE Id = 5013 LIMIT 1
[6:40] [SQL Read] SELECT * FROM ChangeImages WHERE Id = 5014 LIMIT 1
[6:40] [SQL Read] SELECT * FROM ChangeImages WHERE Id = 4997 LIMIT 1
[6:40] [SQL Read] SELECT * FROM ChangeImages WHERE Id = 4998 LIMIT 1
[6:40] [SQL Read] SELECT * FROM ChangeImages WHERE Id = 5000 LIMIT 1
[6:40] [SQL Read] SELECT * FROM ChangeImages WHERE Id = 5001 LIMIT 1
[6:40] [SQL Read] SELECT * FROM ChangeImages WHERE Id = 5002 LIMIT 1
[6:40] [SQL Read] SELECT * FROM ChangeImages WHERE Id = 5010 LIMIT 1
[6:40] [SQL Read] SELECT * FROM ChangeImages WHERE Id = 5003 LIMIT 1
[6:40] [SQL Read] SELECT * FROM ChangeImages WHERE Id = 5004 LIMIT 1
[6:40] [SQL Read] SELECT * FROM ChangeImages WHERE Id = 5005 LIMIT 1
[6:40] [SQL Read] SELECT * FROM ChangeImages WHERE Id = 5006 LIMIT 1
[6:40] [SQL Read] SELECT * FROM ChangeImages WHERE Id = 4992 LIMIT 1
[6:40] [SQL Read] SELECT * FROM ChangeImages WHERE Id = 4993 LIMIT 1
[6:40] [SQL Read] SELECT * FROM ChangeImages WHERE Id = 4994 LIMIT 1
[6:40] [SQL Read] SELECT * FROM ChangeImages WHERE Id = 4995 LIMIT 1
[6:40] [SQL Read] SELECT * FROM ChangeImages WHERE Id = 4996 LIMIT 1
[6:40] [SQL Read] SELECT * FROM ChangeImages WHERE Id = 5007 LIMIT 1
[6:40] [SQL Read] SELECT * FROM ChangeImages WHERE Id = 5008 LIMIT 1
[6:40] [SQL Read] SELECT * FROM ChangeImages WHERE Id = 5009 LIMIT 1
[6:40] [SQL Read] SELECT * FROM ChangeImages WHERE Id = 4983 LIMIT 1
[6:40] [SQL Read] SELECT * FROM ChangeImages WHERE Id = 4984 LIMIT 1
[6:40] [SQL Read] SELECT * FROM ChangeImages WHERE Id = 4985 LIMIT 1
[6:40] [SQL Read] SELECT * FROM ChangeImages WHERE Id = 4986 LIMIT 1
[6:40] [SQL Read] SELECT * FROM ChangeImages WHERE Id = 4987 LIMIT 1
[6:40] [SQL Read] SELECT * FROM ChangeImages WHERE Id = 4976 LIMIT 1
[6:40] [SQL Read] SELECT * FROM ChangeImages WHERE Id = 4977 LIMIT 1
[6:40] [SQL Read] SELECT * FROM ChangeImages WHERE Id = 4978 LIMIT 1
[6:40] [SQL Read] SELECT * FROM ChangeImages WHERE Id = 4979 LIMIT 1
[6:40] [SQL Read] SELECT * FROM ChangeImages WHERE Id = 4981 LIMIT 1
[6:40] [SQL Read] SELECT * FROM ChangeImages WHERE Id = 4982 LIMIT 1
[6:40] [SQL Read] SELECT * FROM ChangeImages WHERE Id = 4962 LIMIT 1
[6:40] [SQL Read] SELECT * FROM ChangeImages WHERE Id = 4963 LIMIT 1
[6:40] [SQL Read] SELECT * FROM ChangeImages WHERE Id = 4964 LIMIT 1
[6:40] [SQL Read] SELECT * FROM ChangeImages WHERE Id = 4965 LIMIT 1
[6:40] [SQL Read] SELECT * FROM ChangeImages WHERE Id = 4966 LIMIT 1
[6:40] [SQL Read] SELECT * FROM ChangeImages WHERE Id = 4967 LIMIT 1
[6:40] [SQL Read] SELECT * FROM ChangeImages WHERE Id = 4951 LIMIT 1
[6:40] [SQL Read] SELECT * FROM ChangeImages WHERE Id = 4952 LIMIT 1
[6:40] [SQL Read] SELECT * FROM ChangeImages WHERE Id = 4953 LIMIT 1
[6:40] [SQL Read] SELECT * FROM ChangeImages WHERE Id = 5058 LIMIT 1
[6:40] [SQL Read] SELECT * FROM ChangeImages WHERE Id = 5059 LIMIT 1
[6:40] [SQL Read] SELECT * FROM ChangeImages WHERE Id = 20458 LIMIT 1
[6:40] [SQL Read] SELECT * FROM ChangeImages WHERE Id = 20459 LIMIT 1
[6:40] Close transaction for ChangeImages
[6:41] Open transaction for ChangeItems
[6:41] [Scalar] SELECT COUNT(Id) FROM ChangeItems WHERE WorkedIn3D = 0 AND Product = 12
[6:41] [Scalar] SELECT COUNT(Id) FROM ChangeItems WHERE WorkedIn3D = 0 AND Product = 84
[6:41] [Scalar] SELECT COUNT(Id) FROM ChangeItems WHERE WorkedIn3D = 0 AND Product = 99
[6:41] [Scalar] SELECT COUNT(Id) FROM ChangeItems WHERE WorkedIn3D = 0 AND Product = 86
[6:41] [Scalar] SELECT COUNT(Id) FROM ChangeItems WHERE WorkedIn3D = 0 AND Product = 69
[6:41] [Scalar] SELECT COUNT(Id) FROM ChangeItems WHERE WorkedIn3D = 0 AND Product = 70
[6:41] [Scalar] SELECT COUNT(Id) FROM ChangeItems WHERE WorkedIn3D = 0 AND Product = 71
[6:41] [Scalar] SELECT COUNT(Id) FROM ChangeItems WHERE WorkedIn3D = 0 AND Product = 46
[6:41] [Scalar] SELECT COUNT(Id) FROM ChangeItems WHERE WorkedIn3D = 0 AND Product = 105
[6:41] [Scalar] SELECT COUNT(Id) FROM ChangeItems WHERE WorkedIn3D = 0 AND Product = 94
[6:41] [Scalar] SELECT COUNT(Id) FROM ChangeItems WHERE WorkedIn3D = 0 AND Product = 87
[6:41] [Scalar] SELECT COUNT(Id) FROM ChangeItems WHERE WorkedIn3D = 0 AND Product = 54
[6:41] [Scalar] SELECT COUNT(Id) FROM ChangeItems WHERE WorkedIn3D = 0 AND Product = 57
[6:41] [Scalar] SELECT COUNT(Id) FROM ChangeItems WHERE WorkedIn3D = 0 AND Product = 92
[6:41] [Scalar] SELECT COUNT(Id) FROM ChangeItems WHERE WorkedIn3D = 0 AND Product = 13
[6:41] [Scalar] SELECT COUNT(Id) FROM ChangeItems WHERE WorkedIn3D = 0 AND Product = 34
[6:41] [Scalar] SELECT COUNT(Id) FROM ChangeItems WHERE WorkedIn3D = 0 AND Product = 90
[6:41] [Scalar] SELECT COUNT(Id) FROM ChangeItems WHERE WorkedIn3D = 0 AND Product = 102
[6:41] Close transaction for ChangeItems
[6:41] Open transaction for ChangeItems
[6:41] [Scalar] SELECT COUNT(Id) FROM ChangeItems WHERE WorkedIn3D = 0 AND Product = 37
[6:41] [Scalar] SELECT COUNT(Id) FROM ChangeItems WHERE WorkedIn3D = 0 AND Product = 31
[6:41] [Scalar] SELECT COUNT(Id) FROM ChangeItems WHERE WorkedIn3D = 0 AND Product = 103
[6:41] [Scalar] SELECT COUNT(Id) FROM ChangeItems WHERE WorkedIn3D = 0 AND Product = 32
[6:41] [Scalar] SELECT COUNT(Id) FROM ChangeItems WHERE WorkedIn3D = 0 AND Product = 33
[6:41] [Scalar] SELECT COUNT(Id) FROM ChangeItems WHERE WorkedIn3D = 0 AND Product = 40
[6:41] [Scalar] SELECT COUNT(Id) FROM ChangeItems WHERE WorkedIn3D = 0 AND Product = 96
[6:41] [Scalar] SELECT COUNT(Id) FROM ChangeItems WHERE WorkedIn3D = 0 AND Product = 98
[6:41] [Scalar] SELECT COUNT(Id) FROM ChangeItems WHERE WorkedIn3D = 0 AND Product = 83
[6:41] Close transaction for ChangeItems
