[7:16] Open transaction for Users
[7:16] [SQL Read] SELECT * FROM Users WHERE LoginName = '056nvg0128' LIMIT 1
[7:16] Open transaction for Departments
[7:16] [SQL Read] SELECT * FROM Departments WHERE Id = 5 LIMIT 1
[7:16] Open transaction for AppItems
[7:16] [SQL Read] SELECT * FROM AppItems ORDER BY Id
[7:16] Open transaction for UserDatas
[7:16] [SQL Read] SELECT * FROM UserDatas WHERE UserId = 55
[7:16] Open transaction for RuleGroups
[7:16] [SQL Read] SELECT * FROM RuleGroups WHERE Id = 3 LIMIT 1
[7:16] Open transaction for RuleItems
[7:16] [SQL Read] SELECT * FROM RuleItems WHERE Id = 1 LIMIT 1
[7:16] [SQL Read] SELECT * FROM RuleItems WHERE Id = 3 LIMIT 1
[7:16] Open transaction for Settings
[7:16] [Scalar] SELECT StringValue FROM Settings WHERE Key = 'BackupPath'
[7:16] [Scalar] SELECT LongValue FROM Settings WHERE Key = 'BackupDaysToWarn'
[7:16] [Scalar] SELECT LongValue FROM Settings WHERE Key = 'LastBackup'
[7:16] Close transaction for Departments
[7:16] Close transaction for AppItems
[7:16] Close transaction for UserDatas
[7:16] Close transaction for RuleGroups
[7:16] Close transaction for Settings
[7:16] Close transaction for Users
[7:16] Close transaction for RuleItems
