[4:51] Open transaction for Users
[4:51] [SQL Read] SELECT * FROM Users WHERE LoginName = '056nvg0128' LIMIT 1
[4:51] Open transaction for Departments
[4:51] [SQL Read] SELECT * FROM Departments WHERE Id = 5 LIMIT 1
[4:51] Open transaction for AppItems
[4:51] [SQL Read] SELECT * FROM AppItems ORDER BY Id
[4:51] Open transaction for UserDatas
[4:51] [SQL Read] SELECT * FROM UserDatas WHERE UserId = 55
[4:51] Open transaction for RuleGroups
[4:51] [SQL Read] SELECT * FROM RuleGroups WHERE Id = 3 LIMIT 1
[4:51] Open transaction for RuleItems
[4:51] [SQL Read] SELECT * FROM RuleItems WHERE Id = 1 LIMIT 1
[4:51] [SQL Read] SELECT * FROM RuleItems WHERE Id = 3 LIMIT 1
[4:51] Open transaction for Settings
[4:51] [Scalar] SELECT StringValue FROM Settings WHERE Key = 'BackupPath'
[4:51] [Scalar] SELECT LongValue FROM Settings WHERE Key = 'BackupDaysToWarn'
[4:51] [Scalar] SELECT LongValue FROM Settings WHERE Key = 'LastBackup'
[4:51] Close transaction for AppItems
[4:51] Close transaction for Departments
[4:51] Close transaction for Users
[4:51] Close transaction for Settings
[4:51] Close transaction for UserDatas
[4:51] Close transaction for RuleGroups
[4:51] Close transaction for RuleItems
[4:51] Open transaction for BlockItems
[4:51] [SQL Read] SELECT * FROM BlockItems WHERE Code = 'Utility_PathCheck'
[4:51] [SQL Read] SELECT * FROM BlockItems WHERE Code = 'Utility_PathCheck'
[4:51] [SQL Execute] INSERT INTO BlockItems (Code, User) VALUES ('Utility_PathCheck', 55)
[4:51] [Background] Register 58366981
[4:51] Open transaction for Settings
[4:51] [Scalar] SELECT StringValue FROM Settings WHERE Key = 'PathCheckIgnore'
[4:51] [Scalar] SELECT StringValue FROM Settings WHERE Key = 'PathCheckDelete'
[4:51] [Background] Unregister 58366981
[4:51] Close transaction for BlockItems
[4:51] Close transaction for Settings
