[7:27] Представление обновлено
[7:27] Представление обновлено
[7:27] Представление обновлено
[7:27] Представление обновлено
[7:27] Представление обновлено
[7:27] Представление обновлено
[7:27] Представление обновлено
[7:27] Представление обновлено
[7:27] Представление обновлено
[7:27] Представление обновлено
[7:27] Представление обновлено
[7:27] Представление обновлено
[7:27] Представление обновлено
[7:27] Представление обновлено
[7:27] Представление обновлено
[7:27] Представление обновлено
[7:28] Представление обновлено
[7:28] Представление обновлено
[7:28] Представление обновлено
[7:28] Представление обновлено
[7:28] Представление обновлено
[7:28] Представление обновлено
