[7:43] Представление обновлено
[7:43] Представление обновлено
[7:43] Представление обновлено
[7:43] Представление обновлено
[7:43] Представление обновлено
[7:43] Представление обновлено
[7:43] Представление обновлено
[7:43] Представление обновлено
[7:43] Представление обновлено
[7:43] Обновление проработанных чертежей...
[7:43] Шаблонизатор обновлен
[7:43] Дублирование СБ{0000} СБ Л.{3}{5} | СБ{0}
[7:43] Дублирование СБ{00} Л.{3} | СБ{0}
[7:43] Дублирование {0000}-{111} | {0}-{1}
[7:43] Дублирование СБ{0000} СБ Л.{3}{5} | СБ{0}
[7:43] Данные о чертежах обновлены [2,11с]
[7:43] Обновление 3D-моделей...
[7:43] Данные о моделях обновлены [0,52с]
[7:43] Данные о моделях обновлены [1,32с]
